#Results from CartPoleExperiment.py.  First line is means, second line is standard deviations.
0, 57.00
1, 302.00
2, 391.00
3, 419.00
4, 495.00
5, 472.00
6, 554.00
7, 596.00
8, 610.00
9, 423.00
10, 484.00
11, 338.00
12, 564.00
13, 555.00
14, 558.00
15, 461.00
16, 569.00
17, 541.00
18, 441.00
19, 590.00
20, 722.00
21, 518.00
22, 558.00
23, 531.00
24, 602.00
25, 472.00
26, 467.00
27, 764.00
28, 931.00
29, 882.00
30, 661.00
31, 860.00
32, 920.00
33, 701.00
34, 836.00
35, 498.00
36, 613.00
37, 287.00
38, 668.00
39, 731.00
40, 770.00
41, 809.00
42, 743.00
43, 522.00
44, 882.00
45, 701.00
46, 641.00
47, 586.00
48, 683.00
49, 715.00
50, 763.00
51, 638.00
52, 702.00
53, 865.00
54, 653.00
55, 325.00
56, 810.00
57, 807.00
58, 868.00
59, 933.00
60, 638.00
61, 680.00
62, 640.00
63, 895.00
64, 859.00
65, 959.00
66, 424.00
67, 583.00
68, 863.00
69, 983.00
70, 930.00
71, 943.00
72, 990.00
73, 1000.00
74, 958.00
75, 875.00
76, 814.00
77, 637.00
78, 496.00
79, 788.00
80, 854.00
81, 692.00
82, 709.00
83, 653.00
84, 607.00
85, 812.00
86, 727.00
87, 852.00
88, 693.00
89, 792.00
90, 870.00
91, 738.00
92, 888.00
93, 901.00
94, 865.00
95, 882.00
96, 914.00
97, 862.00
98, 671.00
99, 859.00
