#Results from HyperparameterExperiment.py.  First line is number of training episodes, second line is mean balancing steps over 10 episodes.
0, 87.00
1, 134.00
2, 111.00
3, 115.00
4, 130.00
5, 146.00
6, 73.00
7, 120.00
8, 213.00
9, 233.00
10, 246.00
11, 246.00
12, 252.00
13, 257.00
14, 261.00
15, 264.00
16, 270.00
17, 278.00
18, 283.00
19, 355.00
20, 408.00
21, 613.00
22, 269.00
23, 253.00
24, 211.00
25, 246.00
26, 253.00
27, 264.00
28, 273.00
29, 275.00
30, 277.00
31, 280.00
32, 270.00
33, 274.00
34, 279.00
35, 283.00
36, 262.00
37, 318.00
38, 297.00
39, 284.00
40, 322.00
41, 341.00
42, 350.00
43, 284.00
44, 372.00
45, 257.00
46, 259.00
47, 265.00
48, 267.00
49, 267.00
50, 269.00
51, 267.00
52, 269.00
53, 268.00
54, 272.00
55, 271.00
56, 274.00
57, 275.00
58, 250.00
59, 256.00
60, 258.00
61, 260.00
62, 263.00
63, 264.00
64, 266.00
65, 267.00
66, 268.00
67, 270.00
68, 275.00
69, 274.00
70, 276.00
71, 277.00
72, 277.00
73, 281.00
74, 281.00
75, 284.00
76, 286.00
77, 287.00
78, 291.00
79, 292.00
80, 297.00
81, 296.00
82, 299.00
83, 300.00
84, 306.00
85, 309.00
86, 466.00
87, 367.00
88, 327.00
89, 460.00
90, 301.00
91, 377.00
92, 234.00
93, 189.00
94, 182.00
95, 179.00
96, 172.00
97, 170.00
98, 168.00
99, 167.00
