#Results from CartPoleExperiment.py.  First line is means, second line is standard deviations.
0, 16.00
1, 158.00
2, 159.00
3, 279.00
4, 357.00
5, 321.00
6, 335.00
7, 588.00
8, 682.00
9, 950.00
10, 977.00
11, 976.00
12, 1000.00
13, 970.00
14, 391.00
15, 377.00
16, 560.00
17, 1000.00
18, 1000.00
19, 1000.00
20, 823.00
21, 638.00
22, 977.00
23, 850.00
24, 937.00
25, 967.00
26, 194.00
27, 244.00
28, 858.00
29, 1000.00
30, 947.00
31, 976.00
32, 923.00
33, 1000.00
34, 1000.00
35, 731.00
36, 1000.00
37, 889.00
38, 875.00
39, 804.00
40, 509.00
41, 898.00
42, 926.00
43, 899.00
44, 1000.00
45, 1000.00
46, 959.00
47, 939.00
48, 914.00
49, 1000.00
50, 1000.00
51, 974.00
52, 905.00
53, 921.00
54, 1000.00
55, 1000.00
56, 802.00
57, 714.00
58, 1000.00
59, 992.00
60, 944.00
61, 867.00
62, 979.00
63, 1000.00
64, 910.00
65, 955.00
66, 964.00
67, 620.00
68, 1000.00
69, 1000.00
70, 829.00
71, 986.00
72, 983.00
73, 841.00
74, 1000.00
75, 909.00
76, 680.00
77, 737.00
78, 604.00
79, 920.00
80, 905.00
81, 734.00
82, 823.00
83, 829.00
84, 787.00
85, 591.00
86, 561.00
87, 763.00
88, 896.00
89, 860.00
90, 500.00
91, 304.00
92, 705.00
93, 546.00
94, 763.00
95, 786.00
96, 781.00
97, 891.00
98, 841.00
99, 914.00
